^C:\USERS\NATASHA\DOCUMENTS\PROGRAM\ЦИФРОВОЕ НЕЧТО\GENERATESIGNAL\GENERATESIGNAL\PCH.CPP
/c /Zi /nologo /W3 /WX- /diagnostics:column /sdl /O2 /Oi /Oy- /GL /D WIN32 /D _WINDOWS /D NDEBUG /D _UNICODE /D UNICODE /D _AFXDLL /Gm- /EHsc /MD /GS /Gy /fp:precise /Zc:wchar_t /Zc:forScope /Zc:inline /Yc"pch.h" /Fp"RELEASE\GENERATESIGNAL.PCH" /Fo"RELEASE\\" /Fd"RELEASE\VC142.PDB" /external:W3 /Gd /TP /analyze- /FC C:\USERS\NATASHA\DOCUMENTS\PROGRAM\ЦИФРОВОЕ НЕЧТО\GENERATESIGNAL\GENERATESIGNAL\PCH.CPP
^C:\USERS\NATASHA\DOCUMENTS\PROGRAM\ЦИФРОВОЕ НЕЧТО\GENERATESIGNAL\GENERATESIGNAL\GENERATESIGNAL.CPP
/c /Zi /nologo /W3 /WX- /diagnostics:column /sdl /O2 /Oi /Oy- /GL /D WIN32 /D _WINDOWS /D NDEBUG /D _UNICODE /D UNICODE /D _AFXDLL /Gm- /EHsc /MD /GS /Gy /fp:precise /Zc:wchar_t /Zc:forScope /Zc:inline /Yu"pch.h" /Fp"RELEASE\GENERATESIGNAL.PCH" /Fo"RELEASE\\" /Fd"RELEASE\VC142.PDB" /external:W3 /Gd /TP /analyze- /FC C:\USERS\NATASHA\DOCUMENTS\PROGRAM\ЦИФРОВОЕ НЕЧТО\GENERATESIGNAL\GENERATESIGNAL\GENERATESIGNAL.CPP
^C:\USERS\NATASHA\DOCUMENTS\PROGRAM\ЦИФРОВОЕ НЕЧТО\GENERATESIGNAL\GENERATESIGNAL\GENERATESIGNALDLG.CPP
/c /Zi /nologo /W3 /WX- /diagnostics:column /sdl /O2 /Oi /Oy- /GL /D WIN32 /D _WINDOWS /D NDEBUG /D _UNICODE /D UNICODE /D _AFXDLL /Gm- /EHsc /MD /GS /Gy /fp:precise /Zc:wchar_t /Zc:forScope /Zc:inline /Yu"pch.h" /Fp"RELEASE\GENERATESIGNAL.PCH" /Fo"RELEASE\\" /Fd"RELEASE\VC142.PDB" /external:W3 /Gd /TP /analyze- /FC C:\USERS\NATASHA\DOCUMENTS\PROGRAM\ЦИФРОВОЕ НЕЧТО\GENERATESIGNAL\GENERATESIGNAL\GENERATESIGNALDLG.CPP
