^C:\USERS\NATASHA\DOCUMENTS\PROGRAM\ЦИФРОВОЕ НЕЧТО\GENERATESIGNAL\GENERATESIGNAL\RELEASE\GENERATESIGNAL.OBJ|C:\USERS\NATASHA\DOCUMENTS\PROGRAM\ЦИФРОВОЕ НЕЧТО\GENERATESIGNAL\GENERATESIGNAL\RELEASE\GENERATESIGNAL.RES|C:\USERS\NATASHA\DOCUMENTS\PROGRAM\ЦИФРОВОЕ НЕЧТО\GENERATESIGNAL\GENERATESIGNAL\RELEASE\GENERATESIGNALDLG.OBJ|C:\USERS\NATASHA\DOCUMENTS\PROGRAM\ЦИФРОВОЕ НЕЧТО\GENERATESIGNAL\GENERATESIGNAL\RELEASE\PCH.OBJ
C:\USERS\NATASHA\DOCUMENTS\PROGRAM\Цифровое нечто\GENERATESIGNAL\RELEASE\GENERATESIGNAL.EXE
C:\USERS\NATASHA\DOCUMENTS\PROGRAM\Цифровое нечто\GENERATESIGNAL\GENERATESIGNAL\RELEASE\GENERATESIGNAL.IPDB
C:\USERS\NATASHA\DOCUMENTS\PROGRAM\Цифровое нечто\GENERATESIGNAL\GENERATESIGNAL\RELEASE\GENERATESIGNAL.IOBJ
C:\USERS\NATASHA\DOCUMENTS\PROGRAM\ЦИФРОВОЕ НЕЧТО\GENERATESIGNAL\RELEASE\GENERATESIGNAL.PDB
