^C:\USERS\NATASHA\DOCUMENTS\PROGRAM\ЦИФРОВОЕ НЕЧТО\GENERATESIGNAL\QPSK\PCH.CPP
/c /I"C:\USERS\NATASHA\DOCUMENTS\PROGRAM\ЦИФРОВОЕ НЕЧТО\QPSK" /I"C:\USERS\NATASHA\DOCUMENTS\PROGRAM\ЦИФРОВОЕ НЕЧТО\AUDIOFILE" /I"C:\USERS\NATASHA\DOCUMENTS\PROGRAM\ЦИФРОВОЕ НЕЧТО\QPSK" /I"C:\USERS\NATASHA\DOCUMENTS\PROGRAM\ЦИФРОВОЕ НЕЧТО\QPSK\INC" /I"C:\USERS\NATASHA\DOCUMENTS\PROGRAM\ЦИФРОВОЕ НЕЧТО\AUDIOFILE" /ZI /JMC /nologo /W3 /WX- /diagnostics:column /sdl /Od /Oy- /D WIN32 /D _WINDOWS /D _DEBUG /D _UNICODE /D UNICODE /D _AFXDLL /Gm- /EHsc /RTC1 /MDd /GS /fp:precise /Zc:wchar_t /Zc:forScope /Zc:inline /std:c++17 /Yc"pch.h" /Fp"DEBUG\QPSK.PCH" /Fo"DEBUG\\" /Fd"DEBUG\VC142.PDB" /external:W3 /Gd /TP /analyze- /FC C:\USERS\NATASHA\DOCUMENTS\PROGRAM\ЦИФРОВОЕ НЕЧТО\GENERATESIGNAL\QPSK\PCH.CPP
^C:\USERS\NATASHA\DOCUMENTS\PROGRAM\ЦИФРОВОЕ НЕЧТО\GENERATESIGNAL\QPSK\QPSK.CPP
/c /I"C:\USERS\NATASHA\DOCUMENTS\PROGRAM\ЦИФРОВОЕ НЕЧТО\QPSK" /I"C:\USERS\NATASHA\DOCUMENTS\PROGRAM\ЦИФРОВОЕ НЕЧТО\AUDIOFILE" /I"C:\USERS\NATASHA\DOCUMENTS\PROGRAM\ЦИФРОВОЕ НЕЧТО\QPSK" /I"C:\USERS\NATASHA\DOCUMENTS\PROGRAM\ЦИФРОВОЕ НЕЧТО\QPSK\INC" /I"C:\USERS\NATASHA\DOCUMENTS\PROGRAM\ЦИФРОВОЕ НЕЧТО\AUDIOFILE" /ZI /JMC /nologo /W3 /WX- /diagnostics:column /sdl /Od /Oy- /D WIN32 /D _WINDOWS /D _DEBUG /D _UNICODE /D UNICODE /D _AFXDLL /Gm- /EHsc /RTC1 /MDd /GS /fp:precise /Zc:wchar_t /Zc:forScope /Zc:inline /std:c++17 /Yu"pch.h" /Fp"DEBUG\QPSK.PCH" /Fo"DEBUG\\" /Fd"DEBUG\VC142.PDB" /external:W3 /Gd /TP /analyze- /FC C:\USERS\NATASHA\DOCUMENTS\PROGRAM\ЦИФРОВОЕ НЕЧТО\GENERATESIGNAL\QPSK\QPSK.CPP
^C:\USERS\NATASHA\DOCUMENTS\PROGRAM\ЦИФРОВОЕ НЕЧТО\GENERATESIGNAL\QPSK\QPSKDLG.CPP
/c /I"C:\USERS\NATASHA\DOCUMENTS\PROGRAM\ЦИФРОВОЕ НЕЧТО\QPSK" /I"C:\USERS\NATASHA\DOCUMENTS\PROGRAM\ЦИФРОВОЕ НЕЧТО\AUDIOFILE" /I"C:\USERS\NATASHA\DOCUMENTS\PROGRAM\ЦИФРОВОЕ НЕЧТО\QPSK" /I"C:\USERS\NATASHA\DOCUMENTS\PROGRAM\ЦИФРОВОЕ НЕЧТО\QPSK\INC" /I"C:\USERS\NATASHA\DOCUMENTS\PROGRAM\ЦИФРОВОЕ НЕЧТО\AUDIOFILE" /ZI /JMC /nologo /W3 /WX- /diagnostics:column /sdl /Od /Oy- /D WIN32 /D _WINDOWS /D _DEBUG /D _UNICODE /D UNICODE /D _AFXDLL /Gm- /EHsc /RTC1 /MDd /GS /fp:precise /Zc:wchar_t /Zc:forScope /Zc:inline /std:c++17 /Yu"pch.h" /Fp"DEBUG\QPSK.PCH" /Fo"DEBUG\\" /Fd"DEBUG\VC142.PDB" /external:W3 /Gd /TP /analyze- /FC C:\USERS\NATASHA\DOCUMENTS\PROGRAM\ЦИФРОВОЕ НЕЧТО\GENERATESIGNAL\QPSK\QPSKDLG.CPP
