^C:\USERS\NATASHA\DOCUMENTS\PROGRAM\ЦИФРОВОЕ НЕЧТО\GENERATESIGNAL\QPSK\DEBUG\PCH.OBJ|C:\USERS\NATASHA\DOCUMENTS\PROGRAM\ЦИФРОВОЕ НЕЧТО\GENERATESIGNAL\QPSK\DEBUG\QPSK.OBJ|C:\USERS\NATASHA\DOCUMENTS\PROGRAM\ЦИФРОВОЕ НЕЧТО\GENERATESIGNAL\QPSK\DEBUG\QPSK.RES|C:\USERS\NATASHA\DOCUMENTS\PROGRAM\ЦИФРОВОЕ НЕЧТО\GENERATESIGNAL\QPSK\DEBUG\QPSKDLG.OBJ
C:\USERS\NATASHA\DOCUMENTS\PROGRAM\Цифровое нечто\GENERATESIGNAL\DEBUG\QPSK.EXE
C:\USERS\NATASHA\DOCUMENTS\PROGRAM\Цифровое нечто\GENERATESIGNAL\QPSK\DEBUG\QPSK.ILK
C:\USERS\NATASHA\DOCUMENTS\PROGRAM\ЦИФРОВОЕ НЕЧТО\GENERATESIGNAL\DEBUG\QPSK.PDB
