^C:\USERS\NATASHA\DOCUMENTS\PROGRAM\ЦИФРОВОЕ НЕЧТО\GENERATESIGNAL\GENERATESIGNAL\PCH.CPP
/c /I"C:\USERS\NATASHA\DOCUMENTS\PROGRAM\ЦИФРОВОЕ НЕЧТО\AUDIOFILE" /ZI /JMC /nologo /W3 /WX- /diagnostics:column /sdl /Od /Oy- /D WIN32 /D _WINDOWS /D _DEBUG /D _UNICODE /D UNICODE /D _AFXDLL /Gm- /EHsc /RTC1 /MDd /GS /fp:precise /Zc:wchar_t /Zc:forScope /Zc:inline /Yc"pch.h" /Fp"DEBUG\GENERATESIGNAL.PCH" /Fo"DEBUG\\" /Fd"DEBUG\VC142.PDB" /external:W3 /Gd /TP /analyze- /FC C:\USERS\NATASHA\DOCUMENTS\PROGRAM\ЦИФРОВОЕ НЕЧТО\GENERATESIGNAL\GENERATESIGNAL\PCH.CPP
^C:\USERS\NATASHA\DOCUMENTS\PROGRAM\ЦИФРОВОЕ НЕЧТО\GENERATESIGNAL\GENERATESIGNAL\GENERATESIGNAL.CPP
/c /I"C:\USERS\NATASHA\DOCUMENTS\PROGRAM\ЦИФРОВОЕ НЕЧТО\AUDIOFILE" /ZI /JMC /nologo /W3 /WX- /diagnostics:column /sdl /Od /Oy- /D WIN32 /D _WINDOWS /D _DEBUG /D _UNICODE /D UNICODE /D _AFXDLL /Gm- /EHsc /RTC1 /MDd /GS /fp:precise /Zc:wchar_t /Zc:forScope /Zc:inline /Yu"pch.h" /Fp"DEBUG\GENERATESIGNAL.PCH" /Fo"DEBUG\\" /Fd"DEBUG\VC142.PDB" /external:W3 /Gd /TP /analyze- /FC C:\USERS\NATASHA\DOCUMENTS\PROGRAM\ЦИФРОВОЕ НЕЧТО\GENERATESIGNAL\GENERATESIGNAL\GENERATESIGNAL.CPP
^C:\USERS\NATASHA\DOCUMENTS\PROGRAM\ЦИФРОВОЕ НЕЧТО\GENERATESIGNAL\GENERATESIGNAL\GENERATESIGNALDLG.CPP
/c /I"C:\USERS\NATASHA\DOCUMENTS\PROGRAM\ЦИФРОВОЕ НЕЧТО\AUDIOFILE" /ZI /JMC /nologo /W3 /WX- /diagnostics:column /sdl /Od /Oy- /D WIN32 /D _WINDOWS /D _DEBUG /D _UNICODE /D UNICODE /D _AFXDLL /Gm- /EHsc /RTC1 /MDd /GS /fp:precise /Zc:wchar_t /Zc:forScope /Zc:inline /Yu"pch.h" /Fp"DEBUG\GENERATESIGNAL.PCH" /Fo"DEBUG\\" /Fd"DEBUG\VC142.PDB" /external:W3 /Gd /TP /analyze- /FC C:\USERS\NATASHA\DOCUMENTS\PROGRAM\ЦИФРОВОЕ НЕЧТО\GENERATESIGNAL\GENERATESIGNAL\GENERATESIGNALDLG.CPP
